Engine/Binaries/Win32/UE4Game.pdb	2018-10-15T19:17:49.518Z
Engine/Binaries/ThirdParty/PhysX3/Win32/VS2015/PxFoundationPROFILE_x86.pdb	2018-10-15T19:13:45.656Z
Engine/Binaries/ThirdParty/PhysX3/Win32/VS2015/PxPvdSDKPROFILE_x86.pdb	2018-10-15T19:13:45.716Z
Engine/Binaries/ThirdParty/PhysX3/Win32/VS2015/PhysX3PROFILE_x86.pdb	2018-10-15T19:13:45.552Z
Engine/Binaries/ThirdParty/PhysX3/Win32/VS2015/PhysX3CookingPROFILE_x86.pdb	2018-10-15T19:13:27.275Z
Engine/Binaries/ThirdParty/PhysX3/Win32/VS2015/PhysX3CommonPROFILE_x86.pdb	2018-10-15T19:13:27.169Z
Engine/Binaries/ThirdParty/PhysX3/Win32/VS2015/APEX_ClothingPROFILE_x86.pdb	2018-10-15T19:12:04.293Z
Engine/Binaries/ThirdParty/PhysX3/Win32/VS2015/APEX_LegacyPROFILE_x86.pdb	2018-10-15T19:12:25.686Z
Engine/Binaries/ThirdParty/PhysX3/Win32/VS2015/ApexFrameworkPROFILE_x86.pdb	2018-10-15T19:12:30.777Z
Engine/Binaries/ThirdParty/PhysX3/Win32/VS2015/NvClothPROFILE_x86.pdb	2018-10-15T19:12:39.141Z
